Retrieve Facsimile — get_facsimile • ffiec
…
  # Retrieve facsimile data for reporting periods 2025-03-31 and 2025-06-30
  # for institutions with ID RSSD of "480228" and "451965"
  get_facsimile(
    reporting_period_end_date = c("03/31/2025", "06/30/2025"),
    fi_id = c("480228", "451965")
  )

  # Retrieve UBPR data for reporting periods 2025-03-31 and 2025-06-30
  # for institution with ID RSSD of "480228"
  get_ubpr_facsimile(
    reporting_period_end_date = c("03/31/2025", "06/30/2025"),
    fi_id = 480228
  )
}
#> # A tibble: 8,669 × 6
#>    ID_RSSD Quarter    Metric   Unit  Decimals Value       
#>    <chr>   <date>     <chr>    <chr> <chr>    <chr>       
#>  1 480228  2025-03-31 UBPR4341 USD   0        1365000000  
#>  2 480228  2025-03-31 UBPR4635 USD   0        1733000000  
#>  3 480228  2025-03-31 UBPR4665 USD   0        2000000     
#>  4 480228  2025-03-31 UBPR5310 USD   0        14397000000 
#>  5 480228  2025-03-31 UBPR5311 USD   0        5585000000  
#>  6 480228  2025-03-31 UBPR5320 USD   0        723514000000
#>  7 480228  2025-03-31 UBPR5340 USD   0        808943000000
#>  8 480228  2025-03-31 UBPR5369 USD   0        6778000000  
#>  9 480228  2025-03-31 UBPR5380 USD   0        1000000     
#> 10 480228  2025-03-31 UBPR5381 USD   0        0000        
#> # ℹ 8,659 more rows
…
